Command,Variable,Action,default,examples
select,rmnodeid to select,apply selection on select variable,-,?omgeving=acceptatie&returntype=html&risctype=riskscore&select=1015&dateend=2018-04-13&datestart=2017-08-11&type=figure
risctype,type risico,Selecteer top 5 van dit type risico,riskscore,?omgeving=acceptatie&returntype=png&risctype=class3&select=1511&dateend=2017-07-24&datestart=2016-08-24&type=figure
maxdatedev,aantal dagen,maximale afwijking van de gegeven data,7,?omgeving=acceptatie&returntype=html&risctype=time&select=1074&datestart=2016-08-08&dateend=2017-10-08
date,date (yyyy-mm-dd),date for which data should be queried,-,?omgeving=acceptatie&returntype=png&risctype=charge&select=1871&date=2017-08-17
datestart,date (yyyy-mm-dd),start of daterange for which data should be queried,-,?omgeving=acceptatie&returntype=html&risctype=charge&select=1661&dateend=2018-04-24&datestart=2016-04-24&type=table
dateend,date (yyyy-mm-dd),end of daterange for which data should be queried,-,?omgeving=acceptatie&returntype=html&risctype=riskscore&select=1813&dateend=2017-09-24&datestart=2017-08-14&type=table&download
type,table|figure,maak een tabel of een figuur,table,?omgeving=acceptatie&returntype=html&risctype=time&select=1026&date=2016-08-10
returntype,html|png,statische of dynamische presentative (default: html),html,-
omgeving,test|ontwikkel|acceptatie|productie,Geeft toegang tot een specifieke database,acceptatie,-
download,,opens image as binary,-,-
